CD	1001	MyGod	42	60	0	Kaiser	6	88	Pop
CD	1002	Heaven	65	42	0	Emeli	5	45	jaz
DVD	1003	DieHard	50	16	0	McTiernan	112	Action
Book	1004	War&Peace	68	98	12	A90009
Magazine	1005	Oldie	12	20	11	1208
CD	1006	Honey	25	63	11	Billie	6	81	rap
Magazine	1008	Spectator	44	77	1	2095
DVD	1010	theKing	70	8	0	David	152	Comedy	
Book	1009	Ulysses	24	19	0	W01499
